{
	"info": {
		"_postman_id": "d1595f79-0cbf-4e45-9170-5341ec060087",
		"name": "Banking",
		"schema": "https://schema.getpostman.com/json/collection/v2.1.0/collection.json"
	},
	"item": [
		{
			"name": "Detail Card By ID",
			"protocolProfileBehavior": {
				"disableBodyPruning": true
			},
			"request": {
				"method": "GET",
				"header": [],
				"body": {
					"mode": "urlencoded",
					"urlencoded": [
						{
							"key": "user_id",
							"value": "1",
							"type": "default"
						}
					]
				},
				"url": {
					"raw": "localhost:3000/cards/get-card-byid",
					"host": [
						"localhost"
					],
					"port": "3000",
					"path": [
						"cards",
						"get-card-byid"
					]
				}
			},
			"response": []
		},
		{
			"name": "Add Card",
			"request": {
				"method": "POST",
				"header": [],
				"body": {
					"mode": "urlencoded",
					"urlencoded": [
						{
							"key": "user_id",
							"value": "1",
							"type": "default"
						},
						{
							"key": "card_number",
							"value": "123",
							"type": "default"
						},
						{
							"key": "issuer",
							"value": "mastercard",
							"type": "default"
						}
					]
				},
				"url": {
					"raw": "localhost:3000/cards/add-card",
					"host": [
						"localhost"
					],
					"port": "3000",
					"path": [
						"cards",
						"add-card"
					]
				}
			},
			"response": []
		}
	]
}